^C:\USERS\ALUMNO\DOCUMENTS\EXERCICISPROGRAMACIOXARXES\EXERCICISXARXES\EXERCICISXARXES\X64\DEBUG\SOURCE.OBJ
C:\USERS\ALUMNO\DOCUMENTS\EXERCICISPROGRAMACIOXARXES\EXERCICISXARXES\X64\DEBUG\EXERCICISXARXES.EXE
C:\USERS\ALUMNO\DOCUMENTS\EXERCICISPROGRAMACIOXARXES\EXERCICISXARXES\X64\DEBUG\EXERCICISXARXES.ILK
C:\USERS\ALUMNO\DOCUMENTS\EXERCICISPROGRAMACIOXARXES\EXERCICISXARXES\X64\DEBUG\EXERCICISXARXES.PDB
