^C:\USERS\ALUMNO\DOCUMENTS\EXERCICISPROGRAMACIOXARXES\EXERCICISXARXES\EXERCICISXARXES\X64\RELEASE\SOURCE.OBJ
C:\USERS\ALUMNO\DOCUMENTS\EXERCICISPROGRAMACIOXARXES\EXERCICISXARXES\X64\RELEASE\EXERCICISXARXES.EXE
C:\USERS\ALUMNO\DOCUMENTS\EXERCICISPROGRAMACIOXARXES\EXERCICISXARXES\X64\RELEASE\EXERCICISXARXES.PDB
